{
    "master_valve":"zone_1",
    "power_supply":7,
    "zones":[
        {
            "name":"zone_1",
            "relay":1,
            "description":"Main valve"
        },
        {
            "name":"zone_2",
            "relay":2,
            "description":"Front main lawn"
        },
        {
            "name":"zone_3",
            "relay":3,
            "description":"Front upper lawn"
        },
        {
            "name":"zone_4",
            "relay":4,
            "description":"Back playground lawn"
        },
        {
            "name":"zone_5",
            "relay":5,
            "description":"Back main lawn"
        },
        {
            "name":"zone_6",
            "relay":6,
            "description":"Back driveway lawn"
        }
    ],
    "schedule":[
        {
            "day":"monday, tuesday, wednesday, thursday, friday, saturday, sunday",
            "time":"07:00:00",
            "entries":[
                {
                    "name":"zone_3",
                    "minutes":10
                },
                {
                    "name":"zone_2",
                    "minutes":15
                }
            ]
        },
        {
            "day":"monday, tuesday, wednesday, thursday, friday, saturday, sunday",
            "time":"17:30:00",
            "entries":[
                {
                    "name":"zone_3",
                    "minutes":10
                },
                {
                    "name":"zone_2",
                    "minutes":15
                }
            ]
        }
    ]
}